2017 - 2/Lab Circuitos Digitais/Lab CD Fredy Valente/anteriores a 01_11/Quartus __ projects/CENARIO2/simulation/qsim/Cenario2.msim.vcd
$comment
	File created using the following command:
		vcd file Cenario2.msim.vcd -direction
$end
$date
	Wed Sep 27 15:54:57 2017
$end
$version
	ModelSim Version 10.1d
$end
$timescale
	1ps
$end
$scope module Cenario2_vlg_vec_tst $end
$var reg 3 ! SW [9:7] $end
$var wire 1 " LEDR [1] $end
$var wire 1 # sampler $end
$scope module i1 $end
$var wire 1 $ gnd $end
$var wire 1 % vcc $end
$var wire 1 & unknown $end
$var tri1 1 ' devclrn $end
$var tri1 1 ( devpor $end
$var tri1 1 ) devoe $end
$var wire 1 * inst~0_combout $end
$var wire 1 + SW~combout [9] $end
$var wire 1 , SW~combout [8] $end
$var wire 1 - SW~combout [7] $end
$upscope $end
$upscope $end
$enddefinitions $end
#0
$dumpvars
b0 !
1"
x#
0$
1%
x&
1'
1(
1)
1*
0-
0,
0+
$end
#40000
b1 !
1-
0#
0*
0"
#80000
b11 !
b10 !
0-
1,
1#
1*
1"
#120000
b11 !
1-
0#
#160000
b111 !
b101 !
b100 !
0-
0,
1+
1#
#200000
b101 !
1-
0#
#240000
b1 !
b11 !
1,
0+
1#
#280000
b111 !
1+
0#
#320000
b110 !
b100 !
b0 !
0-
0,
0+
1#
