2017 - 2/Lab Circuitos Digitais/Lab CD Fredy Valente/aula7/Verilog/simulation/modelsim/msim_transcript
# Reading C:/altera/13.0sp1/modelsim_ase/tcl/vsim/pref.tcl 
# do Somador4Bits_run_msim_rtl_verilog.do 
# if {[file exists rtl_work]} {
# 	vdel -lib rtl_work -all
# }
# vlib rtl_work
# vmap work rtl_work
# ** Error: (vmap-20) Cannot access for writing file "C:\altera\13.0sp1\modelsim_ase\win32aloem/../modelsim.ini".
# 
# Permission denied. (errno = EACCES)
# ** Warning: modelsim.ini and default modelsim.ini are the same file
# Error in macro ./Somador4Bits_run_msim_rtl_verilog.do line 6
# ** Error: (vmap-20) Cannot access for writing file "C:\altera\13.0sp1\modelsim_ase\win32aloem/../modelsim.ini".
# 
# Permission denied. (errno = EACCES)
# ** Warning: modelsim.ini and default modelsim.ini are the same file
#     while executing
# "vmap work rtl_work"
 modules:
# 	Somador4Bits
# 
# vlog -vlog01compat -work work +incdir+C:/altera/13.0sp1/aula7/Verilog {C:/altera/13.0sp1/aula7/Verilog/Somador4Bits_TB.v}
# Model Technology ModelSim ALTERA vlog 10.1d Compiler 2012.11 Nov  2 2012
# -- Compiling module Somador4Bits_TB
# 
# Top level modules:
# 	Somador4Bits_TB
# 
# vsim -t 1ps -L altera_ver -L lpm_ver -L sgate_ver -L altera_mf_ver -L altera_lnsim_ver -L cycloneii_ver -L rtl_work -L work -voptargs="+acc"  Somador4Bits_TB
# vsim -L altera_ver -L lpm_ver -L sgate_ver -L altera_mf_ver -L altera_lnsim_ver -L cycloneii_ver -L rtl_work -L work -voptargs=\"+acc\" -t 1ps Somador4Bits_TB 
# Loading work.Somador4Bits_TB
# Loading work.Somador4Bits
# Loading work.meio_somador2
# Loading work.meio_somador3
# 
# add wave *
# view structure
# .main_pane.structure.interior.cs.body.struct
# view signals
# .main_pane.objects.interior.cs.body.tree
# run -all
# A = 0 + 0 = 0 	 B = 0 + 0 = 0 	 C = 0 + 0 = 0 	 D = 0 + 0 = 0 	 Cout = 0
# A = 1 + 0 = 1 	 B = 0 + 0 = 0 	 C = 0 + 0 = 0 	 D = 0 + 0 = 0 	 Cout = 0
# A = 0 + 1 = 1 	 B = 0 + 0 = 0 	 C = 0 + 0 = 0 	 D = 0 + 0 = 0 	 Cout = 0
# A = 1 + 1 = 0 	 B = 0 + 0 = 1 	 C = 0 + 0 = 0 	 D = 0 + 0 = 0 	 Cout = 0
# A = 0 + 0 = 0 	 B = 1 + 0 = 1 	 C = 0 + 0 = 0 	 D = 0 + 0 = 0 	 Cout = 0
# A = 1 + 0 = 1 	 B = 1 + 0 = 1 	 C = 0 + 0 = 0 	 D = 0 + 0 = 0 	 Cout = 0
# A = 0 + 1 = 1 	 B = 1 + 0 = 1 	 C = 0 + 0 = 0 	 D = 0 + 0 = 0 	 Cout = 0
# A = 1 + 1 = 0 	 B = 1 + 0 = 0 	 C = 0 + 0 = 1 	 D = 0 + 0 = 0 	 Cout = 0
# A = 0 + 0 = 0 	 B = 0 + 1 = 1 	 C = 0 + 0 = 0 	 D = 0 + 0 = 0 	 Cout = 0
# A = 1 + 0 = 1 	 B = 0 + 1 = 1 	 C = 0 + 0 = 0 	 D = 0 + 0 = 0 	 Cout = 0
# A = 0 + 1 = 1 	 B = 0 + 1 = 1 	 C = 0 + 0 = 0 	 D = 0 + 0 = 0 	 Cout = 0
# A = 1 + 1 = 0 	 B = 0 + 1 = 0 	 C = 0 + 0 = 1 	 D = 0 + 0 = 0 	 Cout = 0
# A = 0 + 0 = 0 	 B = 1 + 1 = 0 	 C = 0 + 0 = 1 	 D = 0 + 0 = 0 	 Cout = 0
# A = 1 + 0 = 1 	 B = 1 + 1 = 0 	 C = 0 + 0 = 1 	 D = 0 + 0 = 0 	 Cout = 0
# A = 0 + 1 = 1 	 B = 1 + 1 = 0 	 C = 0 + 0 = 1 	 D = 0 + 0 = 0 	 Cout = 0
# A = 1 + 1 = 0 	 B = 1 + 1 = 1 	 C = 0 + 0 = 1 	 D = 0 + 0 = 0 	 Cout = 0
# A = 0 + 0 = 0 	 B = 0 + 0 = 0 	 C = 1 + 0 = 1 	 D = 0 + 0 = 0 	 Cout = 0
# A = 1 + 0 = 1 	 B = 0 + 0 = 0 	 C = 1 + 0 = 1 	 D = 0 + 0 = 0 	 Cout = 0
# A = 0 + 1 = 1 	 B = 0 + 0 = 0 	 C = 1 + 0 = 1 	 D = 0 + 0 = 0 	 Cout = 0
# A = 1 + 1 = 0 	 B = 0 + 0 = 1 	 C = 1 + 0 = 1 	 D = 0 + 0 = 0 	 Cout = 0
# A = 0 + 0 = 0 	 B = 1 + 0 = 1 	 C = 1 + 0 = 1 	 D = 0 + 0 = 0 	 Cout = 0
# A = 1 + 0 = 1 	 B = 1 + 0 = 1 	 C = 1 + 0 = 1 	 D = 0 + 0 = 0 	 Cout = 0
# A = 0 + 1 = 1 	 B = 1 + 0 = 1 	 C = 1 + 0 = 1 	 D = 0 + 0 = 0 	 Cout = 0
# A = 1 + 1 = 0 	 B = 1 + 0 = 0 	 C = 1 + 0 = 0 	 D = 0 + 0 = 1 	 Cout = 0
# A = 0 + 0 = 0 	 B = 0 + 1 = 1 	 C = 1 + 0 = 1 	 D = 0 + 0 = 0 	 Cout = 0
# A = 1 + 0 = 1 	 B = 0 + 1 = 1 	 C = 1 + 0 = 1 	 D = 0 + 0 = 0 	 Cout = 0
# A = 0 + 1 = 1 	 B = 0 + 1 = 1 	 C = 1 + 0 = 1 	 D = 0 + 0 = 0 	 Cout = 0
# A = 1 + 1 = 0 	 B = 0 + 1 = 0 	 C = 1 + 0 = 0 	 D = 0 + 0 = 1 	 Cout = 0
# A = 0 + 0 = 0 	 B = 1 + 1 = 0 	 C = 1 + 0 = 0 	 D = 0 + 0 = 1 	 Cout = 0
# A = 1 + 0 = 1 	 B = 1 + 1 = 0 	 C = 1 + 0 = 0 	 D = 0 + 0 = 1 	 Cout = 0
# A = 0 + 1 = 1 	 B = 1 + 1 = 0 	 C = 1 + 0 = 0 	 D = 0 + 0 = 1 	 Cout = 0
# A = 1 + 1 = 0 	 B = 1 + 1 = 1 	 C = 1 + 0 = 0 	 D = 0 + 0 = 1 	 Cout = 0
# A = 0 + 0 = 0 	 B = 0 + 0 = 0 	 C = 0 + 1 = 1 	 D = 0 + 0 = 0 	 Cout = 0
# A = 1 + 0 = 1 	 B = 0 + 0 = 0 	 C = 0 + 1 = 1 	 D = 0 + 0 = 0 	 Cout = 0
# A = 0 + 1 = 1 	 B = 0 + 0 = 0 	 C = 0 + 1 = 1 	 D = 0 + 0 = 0 	 Cout = 0
# A = 1 + 1 = 0 	 B = 0 + 0 = 1 	 C = 0 + 1 = 1 	 D = 0 + 0 = 0 	 Cout = 0
# A = 0 + 0 = 0 	 B = 1 + 0 = 1 	 C = 0 + 1 = 1 	 D = 0 + 0 = 0 	 Cout = 0
# A = 1 + 0 = 1 	 B = 1 + 0 = 1 	 C = 0 + 1 = 1 	 D = 0 + 0 = 0 	 Cout = 0
# A = 0 + 1 = 1 	 B = 1 + 0 = 1 	 C = 0 + 1 = 1 	 D = 0 + 0 = 0 	 Cout = 0
# A = 1 + 1 = 0 	 B = 1 + 0 = 0 	 C = 0 + 1 = 0 	 D = 0 + 0 = 1 	 Cout = 0
# A = 0 + 0 = 0 	 B = 0 + 1 = 1 	 C = 0 + 1 = 1 	 D = 0 + 0 = 0 	 Cout = 0
# A = 1 + 0 = 1 	 B = 0 + 1 = 1 	 C = 0 + 1 = 1 	 D = 0 + 0 = 0 	 Cout = 0
# A = 0 + 1 = 1 	 B = 0 + 1 = 1 	 C = 0 + 1 = 1 	 D = 0 + 0 = 0 	 Cout = 0
# A = 1 + 1 = 0 	 B = 0 + 1 = 0 	 C = 0 + 1 = 0 	 D = 0 + 0 = 1 	 Cout = 0
# A = 0 + 0 = 0 	 B = 1 + 1 = 0 	 C = 0 + 1 = 0 	 D = 0 + 0 = 1 	 Cout = 0
# A = 1 + 0 = 1 	 B = 1 + 1 = 0 	 C = 0 + 1 = 0 	 D = 0 + 0 = 1 	 Cout = 0
# A = 0 + 1 = 1 	 B = 1 + 1 = 0 	 C = 0 + 1 = 0 	 D = 0 + 0 = 1 	 Cout = 0
# A = 1 + 1 = 0 	 B = 1 + 1 = 1 	 C = 0 + 1 = 0 	 D = 0 + 0 = 1 	 Cout = 0
# A = 0 + 0 = 0 	 B = 0 + 0 = 0 	 C = 1 + 1 = 0 	 D = 0 + 0 = 1 	 Cout = 0
# A = 1 + 0 = 1 	 B = 0 + 0 = 0 	 C = 1 + 1 = 0 	 D = 0 + 0 = 1 	 Cout = 0
# A = 0 + 1 = 1 	 B = 0 + 0 = 0 	 C = 1 + 1 = 0 	 D = 0 + 0 = 1 	 Cout = 0
# A = 1 + 1 = 0 	 B = 0 + 0 = 1 	 C = 1 + 1 = 0 	 D = 0 + 0 = 1 	 Cout = 0
# A = 0 + 0 = 0 	 B = 1 + 0 = 1 	 C = 1 + 1 = 0 	 D = 0 + 0 = 1 	 Cout = 0
# A = 1 + 0 = 1 	 B = 1 + 0 = 1 	 C = 1 + 1 = 0 	 D = 0 + 0 = 1 	 Cout = 0
# A = 0 + 1 = 1 	 B = 1 + 0 = 1 	 C = 1 + 1 = 0 	 D = 0 + 0 = 1 	 Cout = 0
# A = 1 + 1 = 0 	 B = 1 + 0 = 0 	 C = 1 + 1 = 1 	 D = 0 + 0 = 1 	 Cout = 0
# A = 0 + 0 = 0 	 B = 0 + 1 = 1 	 C = 1 + 1 = 0 	 D = 0 + 0 = 1 	 Cout = 0
# A = 1 + 0 = 1 	 B = 0 + 1 = 1 	 C = 1 + 1 = 0 	 D = 0 + 0 = 1 	 Cout = 0
# A = 0 + 1 = 1 	 B = 0 + 1 = 1 	 C = 1 + 1 = 0 	 D = 0 + 0 = 1 	 Cout = 0
# A = 1 + 1 = 0 	 B = 0 + 1 = 0 	 C = 1 + 1 = 1 	 D = 0 + 0 = 1 	 Cout = 0
# A = 0 + 0 = 0 	 B = 1 + 1 = 0 	 C = 1 + 1 = 1 	 D = 0 + 0 = 1 	 Cout = 0
# A = 1 + 0 = 1 	 B = 1 + 1 = 0 	 C = 1 + 1 = 1 	 D = 0 + 0 = 1 	 Cout = 0
# A = 0 + 1 = 1 	 B = 1 + 1 = 0 	 C = 1 + 1 = 1 	 D = 0 + 0 = 1 	 Cout = 0
# A = 1 + 1 = 0 	 B = 1 + 1 = 1 	 C = 1 + 1 = 1 	 D = 0 + 0 = 1 	 Cout = 0
# A = 0 + 0 = 0 	 B = 0 + 0 = 0 	 C = 0 + 0 = 0 	 D = 1 + 0 = 1 	 Cout = 0
# A = 1 + 0 = 1 	 B = 0 + 0 = 0 	 C = 0 + 0 = 0 	 D = 1 + 0 = 1 	 Cout = 0
# A = 0 + 1 = 1 	 B = 0 + 0 = 0 	 C = 0 + 0 = 0 	 D = 1 + 0 = 1 	 Cout = 0
# A = 1 + 1 = 0 	 B = 0 + 0 = 1 	 C = 0 + 0 = 0 	 D = 1 + 0 = 1 	 Cout = 0
# A = 0 + 0 = 0 	 B = 1 + 0 = 1 	 C = 0 + 0 = 0 	 D = 1 + 0 = 1 	 Cout = 0
# A = 1 + 0 = 1 	 B = 1 + 0 = 1 	 C = 0 + 0 = 0 	 D = 1 + 0 = 1 	 Cout = 0
# A = 0 + 1 = 1 	 B = 1 + 0 = 1 	 C = 0 + 0 = 0 	 D = 1 + 0 = 1 	 Cout = 0
# A = 1 + 1 = 0 	 B = 1 + 0 = 0 	 C = 0 + 0 = 1 	 D = 1 + 0 = 1 	 Cout = 0
# A = 0 + 0 = 0 	 B = 0 + 1 = 1 	 C = 0 + 0 = 0 	 D = 1 + 0 = 1 	 Cout = 0
# A = 1 + 0 = 1 	 B = 0 + 1 = 1 	 C = 0 + 0 = 0 	 D = 1 + 0 = 1 	 Cout = 0
# A = 0 + 1 = 1 	 B = 0 + 1 = 1 	 C = 0 + 0 = 0 	 D = 1 + 0 = 1 	 Cout = 0
# A = 1 + 1 = 0 	 B = 0 + 1 = 0 	 C = 0 + 0 = 1 	 D = 1 + 0 = 1 	 Cout = 0
# A = 0 + 0 = 0 	 B = 1 + 1 = 0 	 C = 0 + 0 = 1 	 D = 1 + 0 = 1 	 Cout = 0
# A = 1 + 0 = 1 	 B = 1 + 1 = 0 	 C = 0 + 0 = 1 	 D = 1 + 0 = 1 	 Cout = 0
# A = 0 + 1 = 1 	 B = 1 + 1 = 0 	 C = 0 + 0 = 1 	 D = 1 + 0 = 1 	 Cout = 0
# A = 1 + 1 = 0 	 B = 1 + 1 = 1 	 C = 0 + 0 = 1 	 D = 1 + 0 = 1 	 Cout = 0
# A = 0 + 0 = 0 	 B = 0 + 0 = 0 	 C = 1 + 0 = 1 	 D = 1 + 0 = 1 	 Cout = 0
# A = 1 + 0 = 1 	 B = 0 + 0 = 0 	 C = 1 + 0 = 1 	 D = 1 + 0 = 1 	 Cout = 0
# A = 0 + 1 = 1 	 B = 0 + 0 = 0 	 C = 1 + 0 = 1 	 D = 1 + 0 = 1 	 Cout = 0
# A = 1 + 1 = 0 	 B = 0 + 0 = 1 	 C = 1 + 0 = 1 	 D = 1 + 0 = 1 	 Cout = 0
# A = 0 + 0 = 0 	 B = 1 + 0 = 1 	 C = 1 + 0 = 1 	 D = 1 + 0 = 1 	 Cout = 0
# A = 1 + 0 = 1 	 B = 1 + 0 = 1 	 C = 1 + 0 = 1 	 D = 1 + 0 = 1 	 Cout = 0
# A = 0 + 1 = 1 	 B = 1 + 0 = 1 	 C = 1 + 0 = 1 	 D = 1 + 0 = 1 	 Cout = 0
# A = 1 + 1 = 0 	 B = 1 + 0 = 0 	 C = 1 + 0 = 0 	 D = 1 + 0 = 0 	 Cout = 1
# A = 0 + 0 = 0 	 B = 0 + 1 = 1 	 C = 1 + 0 = 1 	 D = 1 + 0 = 1 	 Cout = 0
# A = 1 + 0 = 1 	 B = 0 + 1 = 1 	 C = 1 + 0 = 1 	 D = 1 + 0 = 1 	 Cout = 0
# A = 0 + 1 = 1 	 B = 0 + 1 = 1 	 C = 1 + 0 = 1 	 D = 1 + 0 = 1 	 Cout = 0
# A = 1 + 1 = 0 	 B = 0 + 1 = 0 	 C = 1 + 0 = 0 	 D = 1 + 0 = 0 	 Cout = 1
# A = 0 + 0 = 0 	 B = 1 + 1 = 0 	 C = 1 + 0 = 0 	 D = 1 + 0 = 0 	 Cout = 1
# A = 1 + 0 = 1 	 B = 1 + 1 = 0 	 C = 1 + 0 = 0 	 D = 1 + 0 = 0 	 Cout = 1
# A = 0 + 1 = 1 	 B = 1 + 1 = 0 	 C = 1 + 0 = 0 	 D = 1 + 0 = 0 	 Cout = 1
# A = 1 + 1 = 0 	 B = 1 + 1 = 1 	 C = 1 + 0 = 0 	 D = 1 + 0 = 0 	 Cout = 1
# A = 0 + 0 = 0 	 B = 0 + 0 = 0 	 C = 0 + 1 = 1 	 D = 1 + 0 = 1 	 Cout = 0
# A = 1 + 0 = 1 	 B = 0 + 0 = 0 	 C = 0 + 1 = 1 	 D = 1 + 0 = 1 	 Cout = 0
# A = 0 + 1 = 1 	 B = 0 + 0 = 0 	 C = 0 + 1 = 1 	 D = 1 + 0 = 1 	 Cout = 0
# A = 1 + 1 = 0 	 B = 0 + 0 = 1 	 C = 0 + 1 = 1 	 D = 1 + 0 = 1 	 Cout = 0
# A = 0 + 0 = 0 	 B = 1 + 0 = 1 	 C = 0 + 1 = 1 	 D = 1 + 0 = 1 	 Cout = 0
# A = 1 + 0 = 1 	 B = 1 + 0 = 1 	 C = 0 + 1 = 1 	 D = 1 + 0 = 1 	 Cout = 0
# A = 0 + 1 = 1 	 B = 1 + 0 = 1 	 C = 0 + 1 = 1 	 D = 1 + 0 = 1 	 Cout = 0
# A = 1 + 1 = 0 	 B = 1 + 0 = 0 	 C = 0 + 1 = 0 	 D = 1 + 0 = 0 	 Cout = 1
# A = 0 + 0 = 0 	 B = 0 + 1 = 1 	 C = 0 + 1 = 1 	 D = 1 + 0 = 1 	 Cout = 0
# A = 1 + 0 = 1 	 B = 0 + 1 = 1 	 C = 0 + 1 = 1 	 D = 1 + 0 = 1 	 Cout = 0
# A = 0 + 1 = 1 	 B = 0 + 1 = 1 	 C = 0 + 1 = 1 	 D = 1 + 0 = 1 	 Cout = 0
# A = 1 + 1 = 0 	 B = 0 + 1 = 0 	 C = 0 + 1 = 0 	 D = 1 + 0 = 0 	 Cout = 1
# A = 0 + 0 = 0 	 B = 1 + 1 = 0 	 C = 0 + 1 = 0 	 D = 1 + 0 = 0 	 Cout = 1
# A = 1 + 0 = 1 	 B = 1 + 1 = 0 	 C = 0 + 1 = 0 	 D = 1 + 0 = 0 	 Cout = 1
# A = 0 + 1 = 1 	 B = 1 + 1 = 0 	 C = 0 + 1 = 0 	 D = 1 + 0 = 0 	 Cout = 1
# A = 1 + 1 = 0 	 B = 1 + 1 = 1 	 C = 0 + 1 = 0 	 D = 1 + 0 = 0 	 Cout = 1
# A = 0 + 0 = 0 	 B = 0 + 0 = 0 	 C = 1 + 1 = 0 	 D = 1 + 0 = 0 	 Cout = 1
# A = 1 + 0 = 1 	 B = 0 + 0 = 0 	 C = 1 + 1 = 0 	 D = 1 + 0 = 0 	 Cout = 1
# A = 0 + 1 = 1 	 B = 0 + 0 = 0 	 C = 1 + 1 = 0 	 D = 1 + 0 = 0 	 Cout = 1
# A = 1 + 1 = 0 	 B = 0 + 0 = 1 	 C = 1 + 1 = 0 	 D = 1 + 0 = 0 	 Cout = 1
# A = 0 + 0 = 0 	 B = 1 + 0 = 1 	 C = 1 + 1 = 0 	 D = 1 + 0 = 0 	 Cout = 1
# A = 1 + 0 = 1 	 B = 1 + 0 = 1 	 C = 1 + 1 = 0 	 D = 1 + 0 = 0 	 Cout = 1
# A = 0 + 1 = 1 	 B = 1 + 0 = 1 	 C = 1 + 1 = 0 	 D = 1 + 0 = 0 	 Cout = 1
# A = 1 + 1 = 0 	 B = 1 + 0 = 0 	 C = 1 + 1 = 1 	 D = 1 + 0 = 0 	 Cout = 1
# A = 0 + 0 = 0 	 B = 0 + 1 = 1 	 C = 1 + 1 = 0 	 D = 1 + 0 = 0 	 Cout = 1
# A = 1 + 0 = 1 	 B = 0 + 1 = 1 	 C = 1 + 1 = 0 	 D = 1 + 0 = 0 	 Cout = 1
# A = 0 + 1 = 1 	 B = 0 + 1 = 1 	 C = 1 + 1 = 0 	 D = 1 + 0 = 0 	 Cout = 1
# A = 1 + 1 = 0 	 B = 0 + 1 = 0 	 C = 1 + 1 = 1 	 D = 1 + 0 = 0 	 Cout = 1
# A = 0 + 0 = 0 	 B = 1 + 1 = 0 	 C = 1 + 1 = 1 	 D = 1 + 0 = 0 	 Cout = 1
# A = 1 + 0 = 1 	 B = 1 + 1 = 0 	 C = 1 + 1 = 1 	 D = 1 + 0 = 0 	 Cout = 1
# A = 0 + 1 = 1 	 B = 1 + 1 = 0 	 C = 1 + 1 = 1 	 D = 1 + 0 = 0 	 Cout = 1
# A = 1 + 1 = 0 	 B = 1 + 1 = 1 	 C = 1 + 1 = 1 	 D = 1 + 0 = 0 	 Cout = 1
# A = 0 + 0 = 0 	 B = 0 + 0 = 0 	 C = 0 + 0 = 0 	 D = 0 + 1 = 1 	 Cout = 0
# A = 1 + 0 = 1 	 B = 0 + 0 = 0 	 C = 0 + 0 = 0 	 D = 0 + 1 = 1 	 Cout = 0
# A = 0 + 1 = 1 	 B = 0 + 0 = 0 	 C = 0 + 0 = 0 	 D = 0 + 1 = 1 	 Cout = 0
# A = 1 + 1 = 0 	 B = 0 + 0 = 1 	 C = 0 + 0 = 0 	 D = 0 + 1 = 1 	 Cout = 0
# A = 0 + 0 = 0 	 B = 1 + 0 = 1 	 C = 0 + 0 = 0 	 D = 0 + 1 = 1 	 Cout = 0
# A = 1 + 0 = 1 	 B = 1 + 0 = 1 	 C = 0 + 0 = 0 	 D = 0 + 1 = 1 	 Cout = 0
# A = 0 + 1 = 1 	 B = 1 + 0 = 1 	 C = 0 + 0 = 0 	 D = 0 + 1 = 1 	 Cout = 0
# A = 1 + 1 = 0 	 B = 1 + 0 = 0 	 C = 0 + 0 = 1 	 D = 0 + 1 = 1 	 Cout = 0
# A = 0 + 0 = 0 	 B = 0 + 1 = 1 	 C = 0 + 0 = 0 	 D = 0 + 1 = 1 	 Cout = 0
# A = 1 + 0 = 1 	 B = 0 + 1 = 1 	 C = 0 + 0 = 0 	 D = 0 + 1 = 1 	 Cout = 0
# A = 0 + 1 = 1 	 B = 0 + 1 = 1 	 C = 0 + 0 = 0 	 D = 0 + 1 = 1 	 Cout = 0
# A = 1 + 1 = 0 	 B = 0 + 1 = 0 	 C = 0 + 0 = 1 	 D = 0 + 1 = 1 	 Cout = 0
# A = 0 + 0 = 0 	 B = 1 + 1 = 0 	 C = 0 + 0 = 1 	 D = 0 + 1 = 1 	 Cout = 0
# A = 1 + 0 = 1 	 B = 1 + 1 = 0 	 C = 0 + 0 = 1 	 D = 0 + 1 = 1 	 Cout = 0
# A = 0 + 1 = 1 	 B = 1 + 1 = 0 	 C = 0 + 0 = 1 	 D = 0 + 1 = 1 	 Cout = 0
# A = 1 + 1 = 0 	 B = 1 + 1 = 1 	 C = 0 + 0 = 1 	 D = 0 + 1 = 1 	 Cout = 0
# A = 0 + 0 = 0 	 B = 0 + 0 = 0 	 C = 1 + 0 = 1 	 D = 0 + 1 = 1 	 Cout = 0
# A = 1 + 0 = 1 	 B = 0 + 0 = 0 	 C = 1 + 0 = 1 	 D = 0 + 1 = 1 	 Cout = 0
# A = 0 + 1 = 1 	 B = 0 + 0 = 0 	 C = 1 + 0 = 1 	 D = 0 + 1 = 1 	 Cout = 0
# A = 1 + 1 = 0 	 B = 0 + 0 = 1 	 C = 1 + 0 = 1 	 D = 0 + 1 = 1 	 Cout = 0
# A = 0 + 0 = 0 	 B = 1 + 0 = 1 	 C = 1 + 0 = 1 	 D = 0 + 1 = 1 	 Cout = 0
# A = 1 + 0 = 1 	 B = 1 + 0 = 1 	 C = 1 + 0 = 1 	 D = 0 + 1 = 1 	 Cout = 0
# A = 0 + 1 = 1 	 B = 1 + 0 = 1 	 C = 1 + 0 = 1 	 D = 0 + 1 = 1 	 Cout = 0
# A = 1 + 1 = 0 	 B = 1 + 0 = 0 	 C = 1 + 0 = 0 	 D = 0 + 1 = 0 	 Cout = 1
# A = 0 + 0 = 0 	 B = 0 + 1 = 1 	 C = 1 + 0 = 1 	 D = 0 + 1 = 1 	 Cout = 0
# A = 1 + 0 = 1 	 B = 0 + 1 = 1 	 C = 1 + 0 = 1 	 D = 0 + 1 = 1 	 Cout = 0
# A = 0 + 1 = 1 	 B = 0 + 1 = 1 	 C = 1 + 0 = 1 	 D = 0 + 1 = 1 	 Cout = 0
# A = 1 + 1 = 0 	 B = 0 + 1 = 0 	 C = 1 + 0 = 0 	 D = 0 + 1 = 0 	 Cout = 1
# A = 0 + 0 = 0 	 B = 1 + 1 = 0 	 C = 1 + 0 = 0 	 D = 0 + 1 = 0 	 Cout = 1
# A = 1 + 0 = 1 	 B = 1 + 1 = 0 	 C = 1 + 0 = 0 	 D = 0 + 1 = 0 	 Cout = 1
# A = 0 + 1 = 1 	 B = 1 + 1 = 0 	 C = 1 + 0 = 0 	 D = 0 + 1 = 0 	 Cout = 1
# A = 1 + 1 = 0 	 B = 1 + 1 = 1 	 C = 1 + 0 = 0 	 D = 0 + 1 = 0 	 Cout = 1
# A = 0 + 0 = 0 	 B = 0 + 0 = 0 	 C = 0 + 1 = 1 	 D = 0 + 1 = 1 	 Cout = 0
# A = 1 + 0 = 1 	 B = 0 + 0 = 0 	 C = 0 + 1 = 1 	 D = 0 + 1 = 1 	 Cout = 0
# A = 0 + 1 = 1 	 B = 0 + 0 = 0 	 C = 0 + 1 = 1 	 D = 0 + 1 = 1 	 Cout = 0
# A = 1 + 1 = 0 	 B = 0 + 0 = 1 	 C = 0 + 1 = 1 	 D = 0 + 1 = 1 	 Cout = 0
# A = 0 + 0 = 0 	 B = 1 + 0 = 1 	 C = 0 + 1 = 1 	 D = 0 + 1 = 1 	 Cout = 0
# A = 1 + 0 = 1 	 B = 1 + 0 = 1 	 C = 0 + 1 = 1 	 D = 0 + 1 = 1 	 Cout = 0
# A = 0 + 1 = 1 	 B = 1 + 0 = 1 	 C = 0 + 1 = 1 	 D = 0 + 1 = 1 	 Cout = 0
# A = 1 + 1 = 0 	 B = 1 + 0 = 0 	 C = 0 + 1 = 0 	 D = 0 + 1 = 0 	 Cout = 1
# A = 0 + 0 = 0 	 B = 0 + 1 = 1 	 C = 0 + 1 = 1 	 D = 0 + 1 = 1 	 Cout = 0
# A = 1 + 0 = 1 	 B = 0 + 1 = 1 	 C = 0 + 1 = 1 	 D = 0 + 1 = 1 	 Cout = 0
# A = 0 + 1 = 1 	 B = 0 + 1 = 1 	 C = 0 + 1 = 1 	 D = 0 + 1 = 1 	 Cout = 0
# A = 1 + 1 = 0 	 B = 0 + 1 = 0 	 C = 0 + 1 = 0 	 D = 0 + 1 = 0 	 Cout = 1
# A = 0 + 0 = 0 	 B = 1 + 1 = 0 	 C = 0 + 1 = 0 	 D = 0 + 1 = 0 	 Cout = 1
# A = 1 + 0 = 1 	 B = 1 + 1 = 0 	 C = 0 + 1 = 0 	 D = 0 + 1 = 0 	 Cout = 1
# A = 0 + 1 = 1 	 B = 1 + 1 = 0 	 C = 0 + 1 = 0 	 D = 0 + 1 = 0 	 Cout = 1
# A = 1 + 1 = 0 	 B = 1 + 1 = 1 	 C = 0 + 1 = 0 	 D = 0 + 1 = 0 	 Cout = 1
# A = 0 + 0 = 0 	 B = 0 + 0 = 0 	 C = 1 + 1 = 0 	 D = 0 + 1 = 0 	 Cout = 1
# A = 1 + 0 = 1 	 B = 0 + 0 = 0 	 C = 1 + 1 = 0 	 D = 0 + 1 = 0 	 Cout = 1
# A = 0 + 1 = 1 	 B = 0 + 0 = 0 	 C = 1 + 1 = 0 	 D = 0 + 1 = 0 	 Cout = 1
# A = 1 + 1 = 0 	 B = 0 + 0 = 1 	 C = 1 + 1 = 0 	 D = 0 + 1 = 0 	 Cout = 1
# A = 0 + 0 = 0 	 B = 1 + 0 = 1 	 C = 1 + 1 = 0 	 D = 0 + 1 = 0 	 Cout = 1
# A = 1 + 0 = 1 	 B = 1 + 0 = 1 	 C = 1 + 1 = 0 	 D = 0 + 1 = 0 	 Cout = 1
# A = 0 + 1 = 1 	 B = 1 + 0 = 1 	 C = 1 + 1 = 0 	 D = 0 + 1 = 0 	 Cout = 1
# A = 1 + 1 = 0 	 B = 1 + 0 = 0 	 C = 1 + 1 = 1 	 D = 0 + 1 = 0 	 Cout = 1
# A = 0 + 0 = 0 	 B = 0 + 1 = 1 	 C = 1 + 1 = 0 	 D = 0 + 1 = 0 	 Cout = 1
# A = 1 + 0 = 1 	 B = 0 + 1 = 1 	 C = 1 + 1 = 0 	 D = 0 + 1 = 0 	 Cout = 1
# A = 0 + 1 = 1 	 B = 0 + 1 = 1 	 C = 1 + 1 = 0 	 D = 0 + 1 = 0 	 Cout = 1
# A = 1 + 1 = 0 	 B = 0 + 1 = 0 	 C = 1 + 1 = 1 	 D = 0 + 1 = 0 	 Cout = 1
# A = 0 + 0 = 0 	 B = 1 + 1 = 0 	 C = 1 + 1 = 1 	 D = 0 + 1 = 0 	 Cout = 1
# A = 1 + 0 = 1 	 B = 1 + 1 = 0 	 C = 1 + 1 = 1 	 D = 0 + 1 = 0 	 Cout = 1
# A = 0 + 1 = 1 	 B = 1 + 1 = 0 	 C = 1 + 1 = 1 	 D = 0 + 1 = 0 	 Cout = 1
# A = 1 + 1 = 0 	 B = 1 + 1 = 1 	 C = 1 + 1 = 1 	 D = 0 + 1 = 0 	 Cout = 1
# A = 0 + 0 = 0 	 B = 0 + 0 = 0 	 C = 0 + 0 = 0 	 D = 1 + 1 = 0 	 Cout = 1
# A = 1 + 0 = 1 	 B = 0 + 0 = 0 	 C = 0 + 0 = 0 	 D = 1 + 1 = 0 	 Cout = 1
# A = 0 + 1 = 1 	 B = 0 + 0 = 0 	 C = 0 + 0 = 0 	 D = 1 + 1 = 0 	 Cout = 1
# A = 1 + 1 = 0 	 B = 0 + 0 = 1 	 C = 0 + 0 = 0 	 D = 1 + 1 = 0 	 Cout = 1
# A = 0 + 0 = 0 	 B = 1 + 0 = 1 	 C = 0 + 0 = 0 	 D = 1 + 1 = 0 	 Cout = 1
# A = 1 + 0 = 1 	 B = 1 + 0 = 1 	 C = 0 + 0 = 0 	 D = 1 + 1 = 0 	 Cout = 1
# A = 0 + 1 = 1 	 B = 1 + 0 = 1 	 C = 0 + 0 = 0 	 D = 1 + 1 = 0 	 Cout = 1
# A = 1 + 1 = 0 	 B = 1 + 0 = 0 	 C = 0 + 0 = 1 	 D = 1 + 1 = 0 	 Cout = 1
# A = 0 + 0 = 0 	 B = 0 + 1 = 1 	 C = 0 + 0 = 0 	 D = 1 + 1 = 0 	 Cout = 1
# A = 1 + 0 = 1 	 B = 0 + 1 = 1 	 C = 0 + 0 = 0 	 D = 1 + 1 = 0 	 Cout = 1
# A = 0 + 1 = 1 	 B = 0 + 1 = 1 	 C = 0 + 0 = 0 	 D = 1 + 1 = 0 	 Cout = 1
# A = 1 + 1 = 0 	 B = 0 + 1 = 0 	 C = 0 + 0 = 1 	 D = 1 + 1 = 0 	 Cout = 1
# A = 0 + 0 = 0 	 B = 1 + 1 = 0 	 C = 0 + 0 = 1 	 D = 1 + 1 = 0 	 Cout = 1
# A = 1 + 0 = 1 	 B = 1 + 1 = 0 	 C = 0 + 0 = 1 	 D = 1 + 1 = 0 	 Cout = 1
