2017 - 2/Lab Circuitos Digitais/Lab CD Fredy Valente/Relatorio 04 -/projetos 04/projetos/simulation/qsim/asd123.msim.vcd
$comment
	File created using the following command:
		vcd file asd123.msim.vcd -direction
$end
$date
	Wed Mar 15 15:17:12 2017
$end
$version
	ModelSim Version 10.1d
$end
$timescale
	1ps
$end
$scope module asd123_vlg_vec_tst $end
$var reg 1 ! clock_50 $end
$var reg 1 " KEY [0:0] $end
$var reg 1 # SW [0:0] $end
$var wire 1 $ LEDR [1] $end
$var wire 1 % LEDR [0] $end
$var wire 1 & sampler $end
$scope module i1 $end
$var wire 1 ' gnd $end
$var wire 1 ( vcc $end
$var wire 1 ) unknown $end
$var tri1 1 * devclrn $end
$var tri1 1 + devpor $end
$var tri1 1 , devoe $end
$var wire 1 - clock_50~combout $end
$var wire 1 . clock_50~clkctrl_outclk $end
$var wire 1 / estado_atual.C~feeder_combout $end
$var wire 1 0 estado_atual.C~regout $end
$var wire 1 1 Selector3~0_combout $end
$var wire 1 2 estado_atual.D~regout $end
$var wire 1 3 Selector0~0_combout $end
$var wire 1 4 estado_atual.A~feeder_combout $end
$var wire 1 5 estado_atual.A~regout $end
$var wire 1 6 Selector1~0_combout $end
$var wire 1 7 estado_atual.B~feeder_combout $end
$var wire 1 8 estado_atual.B~regout $end
$var wire 1 9 Selector2~0_combout $end
$var wire 1 : LEDR~0_combout $end
$var wire 1 ; LEDR[0]~reg0_regout $end
$var wire 1 < LEDR~1_combout $end
$var wire 1 = LEDR[1]~reg0_regout $end
$var wire 1 > SW~combout [0] $end
$var wire 1 ? KEY~combout [0] $end
$upscope $end
$upscope $end
$enddefinitions $end
#0
$dumpvars
0!
b0 "
b0 #
0%
0$
x&
0'
1(
x)
1*
1+
1,
0-
0.
0/
00
01
02
03
04
05
06
07
08
09
0:
0;
0<
0=
0>
0?
$end
#20000
1!
1-
1.
0&
#30000
b1 "
1?
1&
16
13
17
1:
14
#40000
0!
0-
0.
0&
#50000
b0 "
0?
1&
06
03
07
0:
04
#70000
1!
1-
1.
0&
#80000
b1 #
1>
1&
#90000
0!
0-
0.
0&
#100000
b0 #
0>
1&
#120000
1!
1-
1.
0&
#130000
b1 "
1?
1&
16
13
17
1:
14
#140000
0!
0-
0.
0&
#150000
b0 "
0?
1&
06
03
07
0:
04
#170000
1!
1-
1.
0&
#190000
0!
0-
0.
1&
#220000
1!
1-
1.
0&
#240000
0!
0-
0.
1&
#270000
1!
1-
1.
0&
#290000
0!
0-
0.
1&
#320000
1!
1-
1.
0&
#340000
0!
0-
0.
1&
#370000
1!
1-
1.
0&
#390000
0!
0-
0.
1&
#420000
1!
1-
1.
0&
#440000
0!
0-
0.
1&
#470000
1!
1-
1.
0&
#490000
0!
0-
0.
1&
#520000
1!
1-
1.
0&
#540000
0!
0-
0.
1&
#570000
1!
1-
1.
0&
#590000
0!
0-
0.
1&
#620000
1!
1-
1.
0&
#640000
0!
0-
0.
1&
