2017 - 2/Lab Circuitos Digitais/Lab CD Fredy Valente/Relatorio 04 -/projetos 04/Verimerda/simulation/qsim/verilogmerda.msim.vcd
$comment
	File created using the following command:
		vcd file verilogmerda.msim.vcd -direction
$end
$date
	Tue Jul 18 10:28:03 2017
$end
$version
	ModelSim Version 10.1d
$end
$timescale
	1ps
$end
$scope module verilogmerda_vlg_vec_tst $end
$var reg 1 ! KEY0 $end
$var reg 1 " KEY3 $end
$var reg 1 # SW [0:0] $end
$var wire 1 $ LEDR [0] $end
$var wire 1 % sampler $end
$scope module i1 $end
$var wire 1 & gnd $end
$var wire 1 ' vcc $end
$var wire 1 ( unknown $end
$var tri1 1 ) devclrn $end
$var tri1 1 * devpor $end
$var tri1 1 + devoe $end
$var wire 1 , KEY3~combout $end
$var wire 1 - inst|state.state_B~0_combout $end
$var wire 1 . KEY0~combout $end
$var wire 1 / inst|state.state_B~regout $end
$var wire 1 0 SW~combout [0] $end
$upscope $end
$upscope $end
$enddefinitions $end
#0
$dumpvars
0!
0"
b0 #
0$
x%
0&
1'
x(
1)
1*
1+
0,
1-
0.
0/
00
$end
#500
1"
1,
0%
1/
1$
#1000
b1 #
0"
10
0,
1%
0-
#1500
1"
1,
0%
0/
0$
#2000
b0 #
0"
00
0,
1%
1-
#2500
1"
1,
0%
1/
1$
#3000
b1 #
0"
10
0,
1%
0-
#3500
1"
1,
0%
0/
0$
#4000
b0 #
0"
00
0,
1%
1-
#4500
1"
1,
0%
1/
1$
#5000
b1 #
0"
10
0,
1%
0-
#5500
1"
1,
0%
0/
0$
#6000
b0 #
0"
00
0,
1%
1-
#6500
1"
1,
0%
1/
1$
#7000
b1 #
0"
10
0,
1%
0-
#7500
1"
1,
0%
0/
0$
#8000
b0 #
0"
00
0,
1%
1-
#8500
1"
1,
0%
1/
1$
#9000
b1 #
0"
10
0,
1%
0-
#9500
1"
1,
0%
0/
0$
#10000
b0 #
0"
00
0,
1%
1-
#10500
1"
1,
0%
1/
1$
#11000
b1 #
0"
10
0,
1%
0-
#11500
1"
1,
0%
0/
0$
#12000
b0 #
0"
00
0,
1%
1-
#12500
1"
1,
0%
1/
1$
#13000
b1 #
0"
10
0,
1%
0-
#13500
1"
1,
0%
0/
0$
#14000
b0 #
0"
00
0,
1%
1-
#14500
1"
1,
0%
1/
1$
#15000
b1 #
0"
10
0,
1%
0-
#15500
1"
1,
0%
0/
0$
#16000
b0 #
0"
00
0,
1%
1-
#16500
1"
1,
0%
1/
1$
#17000
b1 #
0"
10
0,
1%
0-
#17500
1"
1,
0%
0/
0$
#18000
b0 #
0"
00
0,
1%
1-
#18500
1"
1,
0%
1/
1$
#19000
b1 #
0"
10
0,
1%
0-
#19500
1"
1,
0%
0/
0$
#20000
1!
b0 #
0"
1.
00
0,
1%
1-
#20500
1"
1,
0%
#21000
b1 #
0"
10
0,
1%
0-
#21500
1"
1,
0%
#22000
b0 #
0"
00
0,
1%
1-
#22500
1"
1,
0%
#23000
b1 #
0"
10
0,
1%
0-
#23500
1"
1,
0%
#24000
b0 #
0"
00
0,
1%
1-
#24500
1"
1,
0%
#25000
b1 #
0"
10
0,
1%
0-
#25500
1"
1,
0%
#26000
b0 #
0"
00
0,
1%
1-
#26500
1"
1,
0%
#27000
b1 #
0"
10
0,
1%
0-
#27500
1"
1,
0%
#28000
b0 #
0"
00
0,
1%
1-
#28500
1"
1,
0%
#29000
b1 #
0"
10
0,
1%
0-
#29500
1"
1,
0%
#30000
0!
b0 #
0"
0.
00
0,
1%
1-
#30500
1"
1,
0%
1/
1$
#31000
b1 #
0"
10
0,
1%
0-
#31500
1"
1,
0%
0/
0$
#32000
b0 #
0"
00
0,
1%
1-
#32500
1"
1,
0%
1/
1$
#33000
b1 #
0"
10
0,
1%
0-
#33500
1"
1,
0%
0/
0$
#34000
b0 #
0"
00
0,
1%
1-
#34500
1"
1,
0%
1/
1$
#35000
b1 #
0"
10
0,
1%
0-
#35500
1"
1,
0%
0/
0$
#36000
b0 #
0"
00
0,
1%
1-
#36500
1"
1,
0%
1/
1$
#37000
b1 #
0"
10
0,
1%
0-
#37500
1"
1,
0%
0/
0$
#38000
b0 #
0"
00
0,
1%
1-
#38500
1"
1,
0%
1/
1$
#39000
b1 #
0"
10
0,
1%
0-
#39500
1"
1,
0%
0/
0$
#40000
b0 #
0"
00
0,
1%
1-
#40500
1"
1,
0%
1/
1$
#41000
b1 #
0"
10
0,
1%
0-
#41500
1"
1,
0%
0/
0$
#42000
b0 #
0"
00
0,
1%
1-
#42500
1"
1,
0%
1/
1$
#43000
b1 #
0"
10
0,
1%
0-
#43500
1"
1,
0%
0/
0$
#44000
b0 #
0"
00
0,
1%
1-
#44500
1"
1,
0%
1/
1$
#45000
b1 #
0"
10
0,
1%
0-
#45500
1"
1,
0%
0/
0$
#46000
b0 #
0"
00
0,
1%
1-
#46500
1"
1,
0%
1/
1$
#47000
b1 #
0"
10
0,
1%
0-
#47500
1"
1,
0%
0/
0$
#48000
b0 #
0"
00
0,
1%
1-
#48500
1"
1,
0%
1/
1$
#49000
b1 #
0"
10
0,
1%
0-
#49500
1"
1,
0%
0/
0$
#50000
b0 #
0"
00
0,
1%
1-
#50500
1"
1,
0%
1/
1$
#51000
b1 #
0"
10
0,
1%
0-
#51500
1"
1,
0%
0/
0$
#52000
b0 #
0"
00
0,
1%
1-
#52500
1"
1,
0%
1/
1$
#53000
b1 #
0"
10
0,
1%
0-
#53500
1"
1,
0%
0/
0$
#54000
b0 #
0"
00
0,
1%
1-
#54500
1"
1,
0%
1/
1$
#55000
b1 #
0"
10
0,
1%
0-
#55500
1"
1,
0%
0/
0$
#56000
b0 #
0"
00
0,
1%
1-
#56500
1"
1,
0%
1/
1$
#57000
b1 #
0"
10
0,
1%
0-
#57500
1"
1,
0%
0/
0$
#58000
b0 #
0"
00
0,
1%
1-
#58500
1"
1,
0%
1/
1$
#59000
b1 #
0"
10
0,
1%
0-
#59500
1"
1,
0%
0/
0$
#60000
b0 #
0"
00
0,
1%
1-
#60500
1"
1,
0%
1/
1$
#61000
b1 #
0"
10
0,
1%
0-
#61500
1"
1,
0%
0/
0$
#62000
b0 #
0"
00
0,
1%
1-
#62500
1"
1,
0%
1/
1$
#63000
b1 #
0"
10
0,
1%
0-
#63500
1"
1,
0%
0/
0$
#64000
b0 #
0"
00
0,
1%
1-
#64500
1"
1,
0%
1/
1$
#65000
b1 #
0"
10
0,
1%
0-
#65500
1"
1,
0%
0/
0$
#66000
b0 #
0"
00
0,
1%
1-
#66500
1"
1,
0%
1/
1$
#67000
b1 #
0"
10
0,
1%
0-
#67500
1"
1,
0%
0/
0$
#68000
b0 #
0"
00
0,
1%
1-
#68500
1"
1,
0%
1/
1$
#69000
b1 #
0"
10
0,
1%
0-
#69500
1"
1,
0%
0/
0$
#70000
b0 #
0"
00
0,
1%
1-
#70500
1"
1,
0%
1/
1$
#71000
b1 #
0"
10
0,
1%
0-
#71500
1"
1,
0%
0/
0$
#72000
b0 #
0"
00
0,
1%
1-
#72500
1"
1,
0%
1/
1$
#73000
b1 #
0"
10
0,
1%
0-
#73500
1"
1,
0%
0/
0$
#74000
b0 #
0"
00
0,
1%
1-
#74500
1"
1,
0%
1/
1$
#75000
b1 #
0"
10
0,
1%
0-
#75500
1"
1,
0%
0/
0$
#76000
b0 #
0"
00
0,
1%
1-
#76500
1"
1,
0%
1/
1$
#77000
b1 #
0"
10
0,
1%
0-
#77500
1"
1,
0%
0/
0$
#78000
b0 #
0"
00
0,
1%
1-
#78500
1"
1,
0%
1/
1$
#79000
b1 #
0"
10
0,
1%
0-
#79500
1"
1,
0%
0/
0$
#80000
b0 #
0"
00
0,
1%
1-
#80500
1"
1,
0%
1/
1$
#81000
b1 #
0"
10
0,
1%
0-
#81500
1"
1,
0%
0/
0$
#82000
b0 #
0"
00
0,
1%
1-
#82500
1"
1,
0%
1/
1$
#83000
b1 #
0"
10
0,
1%
0-
#83500
1"
1,
0%
0/
0$
#84000
b0 #
0"
00
0,
1%
1-
#84500
1"
1,
0%
1/
1$
#85000
b1 #
0"
10
0,
1%
0-
#85500
1"
1,
0%
0/
0$
#86000
b0 #
0"
00
0,
1%
1-
#86500
1"
1,
0%
1/
1$
#87000
b1 #
0"
10
0,
1%
0-
#87500
1"
1,
0%
0/
0$
#88000
b0 #
0"
00
0,
1%
1-
#88500
1"
1,
0%
1/
1$
#89000
b1 #
0"
10
0,
1%
0-
#89500
1"
1,
0%
0/
0$
#90000
b0 #
0"
00
0,
1%
1-
#90500
1"
1,
0%
1/
1$
#91000
b1 #
0"
10
0,
1%
0-
#91500
1"
1,
0%
0/
0$
#92000
b0 #
0"
00
0,
1%
1-
#92500
1"
1,
0%
1/
1$
#93000
b1 #
0"
10
0,
1%
0-
#93500
1"
1,
0%
0/
0$
#94000
b0 #
0"
00
0,
1%
1-
#94500
1"
1,
0%
1/
1$
#95000
b1 #
0"
10
0,
1%
0-
#95500
1"
1,
0%
0/
0$
#96000
b0 #
0"
00
0,
1%
1-
#96500
1"
1,
0%
1/
1$
#97000
b1 #
0"
10
0,
1%
0-
#97500
1"
1,
0%
0/
0$
#98000
b0 #
0"
00
0,
1%
1-
#98500
1"
1,
0%
1/
1$
#99000
b1 #
0"
10
0,
1%
0-
#99500
1"
1,
0%
0/
0$
#100000
b0 #
0"
00
0,
1%
1-
#100500
1"
1,
0%
1/
1$
#101000
b1 #
0"
10
0,
1%
0-
#101500
1"
1,
0%
0/
0$
#102000
b0 #
0"
00
0,
1%
1-
#102500
1"
1,
0%
1/
1$
#103000
b1 #
0"
10
0,
1%
0-
#103500
1"
1,
0%
0/
0$
#104000
b0 #
0"
00
0,
1%
1-
#104500
1"
1,
0%
1/
1$
#105000
b1 #
0"
10
0,
1%
0-
#105500
1"
1,
0%
0/
0$
#106000
b0 #
0"
00
0,
1%
1-
#106500
1"
1,
0%
1/
1$
#107000
b1 #
0"
10
0,
1%
0-
#107500
1"
1,
0%
0/
0$
#108000
b0 #
0"
00
0,
1%
1-
#108500
1"
1,
0%
1/
1$
#109000
b1 #
0"
10
0,
1%
0-
#109500
1"
1,
0%
0/
0$
#110000
b0 #
0"
00
0,
1%
1-
#110500
1"
1,
0%
1/
1$
#111000
b1 #
0"
10
0,
1%
0-
#111500
1"
1,
0%
0/
0$
#112000
b0 #
0"
00
0,
1%
1-
#112500
1"
1,
0%
1/
1$
#113000
b1 #
0"
10
0,
1%
0-
#113500
1"
1,
0%
0/
0$
#114000
b0 #
0"
00
0,
1%
1-
#114500
1"
1,
0%
1/
1$
#115000
b1 #
0"
10
0,
1%
0-
#115500
1"
1,
0%
0/
0$
#116000
b0 #
0"
00
0,
1%
1-
#116500
1"
1,
0%
1/
1$
#117000
b1 #
0"
10
0,
1%
0-
#117500
1"
1,
0%
0/
0$
#118000
b0 #
0"
00
0,
1%
1-
#118500
1"
1,
0%
1/
1$
#119000
b1 #
0"
10
0,
1%
0-
#119500
1"
1,
0%
0/
0$
#120000
b0 #
0"
00
0,
1%
1-
#120500
1"
1,
0%
1/
1$
#121000
b1 #
0"
10
0,
1%
0-
#121500
1"
1,
0%
0/
0$
#122000
b0 #
0"
00
0,
1%
1-
#122500
1"
1,
0%
1/
1$
#123000
b1 #
0"
10
0,
1%
0-
#123500
1"
1,
0%
0/
0$
#124000
b0 #
0"
00
0,
1%
1-
#124500
1"
1,
0%
1/
1$
#125000
b1 #
0"
10
0,
1%
0-
#125500
1"
1,
0%
0/
0$
#126000
b0 #
0"
00
0,
1%
1-
#126500
1"
1,
0%
1/
1$
#127000
b1 #
0"
10
0,
1%
0-
#127500
1"
1,
0%
0/
0$
#128000
b0 #
0"
00
0,
1%
1-
#128500
1"
1,
0%
1/
1$
#129000
b1 #
0"
10
0,
1%
0-
#129500
1"
1,
0%
0/
0$
#130000
b0 #
0"
00
0,
1%
1-
#130500
1"
1,
0%
1/
1$
#131000
b1 #
0"
10
0,
1%
0-
#131500
1"
1,
0%
0/
0$
#132000
b0 #
0"
00
0,
1%
1-
#132500
1"
1,
0%
1/
1$
#133000
b1 #
0"
10
0,
1%
0-
#133500
1"
1,
0%
0/
0$
#134000
b0 #
0"
00
0,
1%
1-
#134500
1"
1,
0%
1/
1$
#135000
b1 #
0"
10
0,
1%
0-
#135500
1"
1,
0%
0/
0$
#136000
b0 #
0"
00
0,
1%
1-
#136500
1"
1,
0%
1/
1$
#137000
b1 #
0"
10
0,
1%
0-
#137500
1"
1,
0%
0/
0$
#138000
b0 #
0"
00
0,
1%
1-
#138500
1"
1,
0%
1/
1$
#139000
b1 #
0"
10
0,
1%
0-
#139500
1"
1,
0%
0/
0$
#140000
b0 #
0"
00
0,
1%
1-
#140500
1"
1,
0%
1/
1$
#141000
b1 #
0"
10
0,
1%
0-
#141500
1"
1,
0%
0/
0$
#142000
b0 #
0"
00
0,
1%
1-
#142500
1"
1,
0%
1/
1$
#143000
b1 #
0"
10
0,
1%
0-
#143500
1"
1,
0%
0/
0$
#144000
b0 #
0"
00
0,
1%
1-
#144500
1"
1,
0%
1/
1$
#145000
b1 #
0"
10
0,
1%
0-
#145500
1"
1,
0%
0/
0$
#146000
b0 #
0"
00
0,
1%
1-
#146500
1"
1,
0%
1/
1$
#147000
b1 #
0"
10
0,
1%
0-
#147500
1"
1,
0%
0/
0$
#148000
b0 #
0"
00
0,
1%
1-
#148500
1"
1,
0%
1/
1$
#149000
b1 #
0"
10
0,
1%
0-
#149500
1"
1,
0%
0/
0$
#150000
b0 #
0"
00
0,
1%
1-
#150500
1"
1,
0%
1/
1$
#151000
b1 #
0"
10
0,
1%
0-
#151500
1"
1,
0%
0/
0$
#152000
b0 #
0"
00
0,
1%
1-
#152500
1"
1,
0%
1/
1$
#153000
b1 #
0"
10
0,
1%
0-
#153500
1"
1,
0%
0/
0$
#154000
b0 #
0"
00
0,
1%
1-
#154500
1"
1,
0%
1/
1$
#155000
b1 #
0"
10
0,
1%
0-
#155500
1"
1,
0%
0/
0$
#156000
b0 #
0"
00
0,
1%
1-
#156500
1"
1,
0%
1/
1$
#157000
b1 #
0"
10
0,
1%
0-
#157500
1"
1,
0%
0/
0$
#158000
b0 #
0"
00
0,
1%
1-
#158500
1"
1,
0%
1/
1$
#159000
b1 #
0"
10
0,
1%
0-
#159500
1"
1,
0%
0/
0$
#160000
b0 #
0"
00
0,
1%
1-
#160500
1"
1,
0%
1/
1$
#161000
b1 #
0"
10
0,
1%
0-
#161500
1"
1,
0%
0/
0$
#162000
b0 #
0"
00
0,
1%
1-
#162500
1"
1,
0%
1/
1$
#163000
b1 #
0"
10
0,
1%
0-
#163500
1"
1,
0%
0/
0$
#164000
b0 #
0"
00
0,
1%
1-
#164500
1"
1,
0%
1/
1$
#165000
b1 #
0"
10
0,
1%
0-
#165500
1"
1,
0%
0/
0$
#166000
b0 #
0"
00
0,
1%
1-
#166500
1"
1,
0%
1/
1$
#167000
b1 #
0"
10
0,
1%
0-
#167500
1"
1,
0%
0/
0$
#168000
b0 #
0"
00
0,
1%
1-
#168500
1"
1,
0%
1/
1$
#169000
b1 #
0"
10
0,
1%
0-
#169500
1"
1,
0%
0/
0$
#170000
b0 #
0"
00
0,
1%
1-
#170500
1"
1,
0%
1/
1$
#171000
b1 #
0"
10
0,
1%
0-
#171500
1"
1,
0%
0/
0$
#172000
b0 #
0"
00
0,
1%
1-
#172500
1"
1,
0%
1/
1$
#173000
b1 #
0"
10
0,
1%
0-
#173500
1"
1,
0%
0/
0$
#174000
b0 #
0"
00
0,
1%
1-
#174500
1"
1,
0%
1/
1$
#175000
b1 #
0"
10
0,
1%
0-
#175500
1"
1,
0%
0/
0$
#176000
b0 #
0"
00
0,
1%
1-
#176500
1"
1,
0%
1/
1$
#177000
b1 #
0"
10
0,
1%
0-
#177500
1"
1,
0%
0/
0$
#178000
b0 #
0"
00
0,
1%
1-
#178500
1"
1,
0%
1/
1$
#179000
b1 #
0"
10
0,
1%
0-
#179500
1"
1,
0%
0/
0$
#180000
b0 #
0"
00
0,
1%
1-
#180500
1"
1,
0%
1/
1$
#181000
b1 #
0"
10
0,
1%
0-
#181500
1"
1,
0%
0/
0$
#182000
b0 #
0"
00
0,
1%
1-
#182500
1"
1,
0%
1/
1$
#183000
b1 #
0"
10
0,
1%
0-
#183500
1"
1,
0%
0/
0$
#184000
b0 #
0"
00
0,
1%
1-
#184500
1"
1,
0%
1/
1$
#185000
b1 #
0"
10
0,
1%
0-
#185500
1"
1,
0%
0/
0$
#186000
b0 #
0"
00
0,
1%
1-
#186500
1"
1,
0%
1/
1$
#187000
b1 #
0"
10
0,
1%
0-
#187500
1"
1,
0%
0/
0$
#188000
b0 #
0"
00
0,
1%
1-
#188500
1"
1,
0%
1/
1$
#189000
b1 #
0"
10
0,
1%
0-
#189500
1"
1,
0%
0/
0$
#190000
b0 #
0"
00
0,
1%
1-
#190500
1"
1,
0%
1/
1$
#191000
b1 #
0"
10
0,
1%
0-
#191500
1"
1,
0%
0/
0$
#192000
b0 #
0"
00
0,
1%
1-
#192500
1"
1,
0%
1/
1$
#193000
b1 #
0"
10
0,
1%
0-
#193500
1"
1,
0%
0/
0$
#194000
b0 #
0"
00
0,
1%
1-
#194500
1"
1,
0%
1/
1$
#195000
b1 #
0"
10
0,
1%
0-
#195500
1"
1,
0%
0/
0$
#196000
b0 #
0"
00
0,
1%
1-
#196500
1"
1,
0%
1/
1$
#197000
b1 #
0"
10
0,
1%
0-
#197500
1"
1,
0%
0/
0$
#198000
b0 #
0"
00
0,
1%
1-
#198500
1"
1,
0%
1/
1$
#199000
b1 #
0"
10
0,
1%
0-
#199500
1"
1,
0%
0/
0$
#200000
b0 #
0"
00
0,
1%
1-
#200500
1"
1,
0%
1/
1$
#201000
b1 #
0"
10
0,
1%
0-
#201500
1"
1,
0%
0/
0$
#202000
b0 #
0"
00
0,
1%
1-
#202500
1"
1,
0%
1/
1$
#203000
b1 #
0"
10
0,
1%
0-
#203500
1"
1,
0%
0/
0$
#204000
b0 #
0"
00
0,
1%
1-
#204500
1"
1,
0%
1/
1$
#205000
b1 #
0"
10
0,
1%
0-
#205500
1"
1,
0%
0/
0$
#206000
b0 #
0"
00
0,
1%
1-
#206500
1"
1,
0%
1/
1$
#207000
b1 #
0"
10
0,
1%
0-
#207500
1"
1,
0%
0/
0$
#208000
b0 #
0"
00
0,
1%
1-
#208500
1"
1,
0%
1/
1$
#209000
b1 #
0"
10
0,
1%
0-
#209500
1"
1,
0%
0/
0$
#210000
b0 #
0"
00
0,
1%
1-
#210500
1"
1,
0%
1/
1$
#211000
b1 #
0"
10
0,
1%
0-
#211500
1"
1,
0%
0/
0$
#212000
b0 #
0"
00
0,
1%
1-
#212500
1"
1,
0%
1/
1$
#213000
b1 #
0"
10
0,
1%
0-
#213500
1"
1,
0%
0/
0$
#214000
b0 #
0"
00
0,
1%
1-
#214500
1"
1,
0%
1/
1$
#215000
b1 #
0"
10
0,
1%
0-
#215500
1"
1,
0%
0/
0$
#216000
b0 #
0"
00
0,
1%
1-
#216500
1"
1,
0%
1/
1$
#217000
b1 #
0"
10
0,
1%
0-
#217500
1"
1,
0%
0/
0$
#218000
b0 #
0"
00
0,
1%
1-
#218500
1"
1,
0%
1/
1$
#219000
b1 #
0"
10
0,
1%
0-
#219500
1"
1,
0%
0/
0$
#220000
b0 #
0"
00
0,
1%
1-
#220500
1"
1,
0%
1/
1$
#221000
b1 #
0"
10
0,
1%
0-
#221500
1"
1,
0%
0/
0$
#222000
b0 #
0"
00
0,
1%
1-
#222500
1"
1,
0%
1/
1$
#223000
b1 #
0"
10
0,
1%
0-
#223500
1"
1,
0%
0/
0$
#224000
b0 #
0"
00
0,
1%
1-
#224500
1"
1,
0%
1/
1$
#225000
b1 #
0"
10
0,
1%
0-
#225500
1"
1,
0%
0/
0$
#226000
b0 #
0"
00
0,
1%
1-
#226500
1"
1,
0%
1/
1$
#227000
b1 #
0"
10
0,
1%
0-
#227500
1"
1,
0%
0/
0$
#228000
b0 #
0"
00
0,
1%
1-
#228500
1"
1,
0%
1/
1$
#229000
b1 #
0"
10
0,
1%
0-
#229500
1"
1,
0%
0/
0$
#230000
b0 #
0"
00
0,
1%
1-
#230500
1"
1,
0%
1/
1$
#231000
b1 #
0"
10
0,
1%
0-
#231500
1"
1,
0%
0/
0$
#232000
b0 #
0"
00
0,
1%
1-
#232500
1"
1,
0%
1/
1$
#233000
b1 #
0"
10
0,
1%
0-
#233500
1"
1,
0%
0/
0$
#234000
b0 #
0"
00
0,
1%
1-
#234500
1"
1,
0%
1/
1$
#235000
b1 #
0"
10
0,
1%
0-
#235500
1"
1,
0%
0/
0$
#236000
b0 #
0"
00
0,
1%
1-
#236500
1"
1,
0%
1/
1$
#237000
b1 #
0"
10
0,
1%
0-
#237500
1"
1,
0%
0/
0$
#238000
b0 #
0"
00
0,
1%
1-
#238500
1"
1,
0%
1/
1$
#239000
b1 #
0"
10
0,
1%
0-
#239500
1"
1,
0%
0/
0$
#240000
b0 #
0"
00
0,
1%
1-
#240500
1"
1,
0%
1/
1$
#241000
b1 #
0"
10
0,
1%
0-
#241500
1"
1,
0%
0/
0$
#242000
b0 #
0"
00
0,
1%
1-
#242500
1"
1,
0%
1/
1$
#243000
b1 #
0"
10
0,
1%
0-
#243500
1"
1,
0%
0/
0$
#244000
b0 #
0"
00
0,
1%
1-
#244500
1"
1,
0%
1/
1$
#245000
b1 #
0"
10
0,
1%
0-
#245500
1"
1,
0%
0/
0$
#246000
b0 #
0"
00
0,
1%
1-
#246500
1"
1,
0%
1/
1$
#247000
b1 #
0"
10
0,
1%
0-
#247500
1"
1,
0%
0/
0$
#248000
b0 #
0"
00
0,
1%
1-
#248500
1"
1,
0%
1/
1$
#249000
b1 #
0"
10
0,
1%
0-
#249500
1"
1,
0%
0/
0$
#250000
b0 #
0"
00
0,
1%
1-
#250500
1"
1,
0%
1/
1$
#251000
b1 #
0"
10
0,
1%
0-
#251500
1"
1,
0%
0/
0$
#252000
b0 #
0"
00
0,
1%
1-
#252500
1"
1,
0%
1/
1$
#253000
b1 #
0"
10
0,
1%
0-
#253500
1"
1,
0%
0/
0$
#254000
b0 #
0"
00
0,
1%
1-
#254500
1"
1,
0%
1/
1$
#255000
b1 #
0"
10
0,
1%
0-
#255500
1"
1,
0%
0/
0$
#256000
b0 #
0"
00
0,
1%
1-
#256500
1"
1,
0%
1/
1$
#257000
b1 #
0"
10
0,
1%
0-
#257500
1"
1,
0%
0/
0$
#258000
b0 #
0"
00
0,
1%
1-
#258500
1"
1,
0%
1/
1$
#259000
b1 #
0"
10
0,
1%
0-
#259500
1"
1,
0%
0/
0$
#260000
b0 #
0"
00
0,
1%
1-
#260500
1"
1,
0%
1/
1$
#261000
b1 #
0"
10
0,
1%
0-
#261500
1"
1,
0%
0/
0$
#262000
b0 #
0"
00
0,
1%
1-
#262500
1"
1,
0%
1/
1$
#263000
b1 #
0"
10
0,
1%
0-
#263500
1"
1,
0%
0/
0$
#264000
b0 #
0"
00
0,
1%
1-
#264500
1"
1,
0%
1/
1$
#265000
b1 #
0"
10
0,
1%
0-
#265500
1"
1,
0%
0/
0$
#266000
b0 #
0"
00
0,
1%
1-
#266500
1"
1,
0%
1/
1$
#267000
b1 #
0"
10
0,
1%
0-
#267500
1"
1,
0%
0/
0$
#268000
b0 #
0"
00
0,
1%
1-
#268500
1"
1,
0%
1/
1$
#269000
b1 #
0"
10
0,
1%
0-
#269500
1"
1,
0%
0/
0$
#270000
b0 #
0"
00
0,
1%
1-
#270500
1"
1,
0%
1/
1$
#271000
b1 #
0"
10
0,
1%
0-
#271500
1"
1,
0%
0/
0$
#272000
b0 #
0"
00
0,
1%
1-
#272500
1"
1,
0%
1/
1$
#273000
b1 #
0"
10
0,
1%
0-
#273500
1"
1,
0%
0/
0$
#274000
b0 #
0"
00
0,
1%
1-
#274500
1"
1,
0%
1/
1$
#275000
b1 #
0"
10
0,
1%
0-
#275500
1"
1,
0%
0/
0$
#276000
b0 #
0"
00
0,
1%
1-
#276500
1"
1,
0%
1/
1$
#277000
b1 #
0"
10
0,
1%
0-
#277500
1"
1,
0%
0/
0$
#278000
b0 #
0"
00
0,
1%
1-
#278500
1"
1,
0%
1/
1$
#279000
b1 #
0"
10
0,
1%
0-
#279500
1"
1,
0%
0/
0$
#280000
b0 #
0"
00
0,
1%
1-
#280500
1"
1,
0%
1/
1$
#281000
b1 #
0"
10
0,
1%
0-
#281500
1"
1,
0%
0/
0$
#282000
b0 #
0"
00
0,
1%
1-
#282500
1"
1,
0%
1/
1$
#283000
b1 #
0"
10
0,
1%
0-
#283500
1"
1,
0%
0/
0$
#284000
b0 #
0"
00
0,
1%
1-
#284500
1"
1,
0%
1/
1$
#285000
b1 #
0"
10
0,
1%
0-
#285500
1"
1,
0%
0/
0$
#286000
b0 #
0"
00
0,
1%
1-
#286500
1"
1,
0%
1/
1$
#287000
b1 #
0"
10
0,
1%
0-
#287500
1"
1,
0%
0/
0$
#288000
b0 #
0"
00
0,
1%
1-
#288500
1"
1,
0%
1/
1$
#289000
b1 #
0"
10
0,
1%
0-
#289500
1"
1,
0%
0/
0$
#290000
b0 #
0"
00
0,
1%
1-
#290500
1"
1,
0%
1/
1$
#291000
b1 #
0"
10
0,
1%
0-
#291500
1"
1,
0%
0/
0$
#292000
b0 #
0"
00
0,
1%
1-
#292500
1"
1,
0%
1/
1$
#293000
b1 #
0"
10
0,
1%
0-
#293500
1"
1,
0%
0/
0$
#294000
b0 #
0"
00
0,
1%
1-
#294500
1"
1,
0%
1/
1$
#295000
b1 #
0"
10
0,
1%
0-
#295500
1"
1,
0%
0/
0$
#296000
b0 #
0"
00
0,
1%
1-
#296500
1"
1,
0%
1/
1$
#297000
b1 #
0"
10
0,
1%
0-
#297500
1"
1,
0%
0/
0$
#298000
b0 #
0"
00
0,
1%
1-
#298500
1"
1,
0%
1/
1$
#299000
b1 #
0"
10
0,
1%
0-
#299500
1"
1,
0%
0/
0$
#300000
b0 #
0"
00
0,
1%
1-
#300500
1"
1,
0%
1/
1$
#301000
b1 #
0"
10
0,
1%
0-
#301500
1"
1,
0%
0/
0$
#302000
b0 #
0"
00
0,
1%
1-
#302500
1"
1,
0%
1/
1$
#303000
b1 #
0"
10
0,
1%
0-
#303500
1"
1,
0%
0/
0$
#304000
b0 #
0"
00
0,
1%
1-
#304500
1"
1,
0%
1/
1$
#305000
b1 #
0"
10
0,
1%
0-
#305500
1"
1,
0%
0/
0$
#306000
b0 #
0"
00
0,
1%
1-
#306500
1"
1,
0%
1/
1$
#307000
b1 #
0"
10
0,
1%
0-
#307500
1"
1,
0%
0/
0$
#308000
b0 #
0"
00
0,
1%
1-
#308500
1"
1,
0%
1/
1$
#309000
b1 #
0"
10
0,
1%
0-
#309500
1"
1,
0%
0/
0$
#310000
b0 #
0"
00
0,
1%
1-
#310500
1"
1,
0%
1/
1$
#311000
b1 #
0"
10
0,
1%
0-
#311500
1"
1,
0%
0/
0$
#312000
b0 #
0"
00
0,
1%
1-
#312500
1"
1,
0%
1/
1$
#313000
b1 #
0"
10
0,
1%
0-
#313500
1"
1,
0%
0/
0$
#314000
b0 #
0"
00
0,
1%
1-
#314500
1"
1,
0%
1/
1$
#315000
b1 #
0"
10
0,
1%
0-
#315500
1"
1,
0%
0/
0$
#316000
b0 #
0"
00
0,
1%
1-
#316500
1"
1,
0%
1/
1$
#317000
b1 #
0"
10
0,
1%
0-
#317500
1"
1,
0%
0/
0$
#318000
b0 #
0"
00
0,
1%
1-
#318500
1"
1,
0%
1/
1$
#319000
b1 #
0"
10
0,
1%
0-
#319500
1"
1,
0%
0/
0$
#320000
b0 #
0"
00
0,
1%
1-
#320500
1"
1,
0%
1/
1$
#321000
b1 #
0"
10
0,
1%
0-
#321500
1"
1,
0%
0/
0$
#322000
b0 #
0"
00
0,
1%
1-
#322500
1"
1,
0%
1/
1$
#323000
b1 #
0"
10
0,
1%
0-
#323500
1"
1,
0%
0/
0$
#324000
b0 #
0"
00
0,
1%
1-
#324500
1"
1,
0%
1/
1$
#325000
b1 #
0"
10
0,
1%
0-
#325500
1"
1,
0%
0/
0$
#326000
b0 #
0"
00
0,
1%
1-
#326500
1"
1,
0%
1/
1$
#327000
b1 #
0"
10
0,
1%
0-
#327500
1"
1,
0%
0/
0$
#328000
b0 #
0"
00
0,
1%
1-
#328500
1"
1,
0%
1/
1$
#329000
b1 #
0"
10
0,
1%
0-
#329500
1"
1,
0%
0/
0$
#330000
b0 #
0"
00
0,
1%
1-
#330500
1"
1,
0%
1/
1$
#331000
b1 #
0"
10
0,
1%
0-
#331500
1"
1,
0%
0/
0$
#332000
b0 #
0"
00
0,
1%
1-
#332500
1"
1,
0%
1/
1$
#333000
b1 #
0"
10
0,
1%
0-
#333500
1"
1,
0%
0/
0$
#334000
b0 #
0"
00
0,
1%
1-
#334500
1"
1,
0%
1/
1$
#335000
b1 #
0"
10
0,
1%
0-
#335500
1"
1,
0%
0/
0$
#336000
b0 #
0"
00
0,
1%
1-
#336500
1"
1,
0%
1/
1$
#337000
b1 #
0"
10
0,
1%
0-
#337500
1"
1,
0%
0/
0$
#338000
b0 #
0"
00
0,
1%
1-
#338500
1"
1,
0%
1/
1$
#339000
b1 #
0"
10
0,
1%
0-
#339500
1"
1,
0%
0/
0$
#340000
b0 #
0"
00
0,
1%
1-
#340500
1"
1,
0%
1/
1$
#341000
b1 #
0"
10
0,
1%
0-
#341500
1"
1,
0%
0/
0$
#342000
b0 #
0"
00
0,
1%
1-
#342500
1"
1,
0%
1/
1$
#343000
b1 #
0"
10
0,
1%
0-
#343500
1"
1,
0%
0/
0$
#344000
b0 #
0"
00
0,
1%
1-
#344500
1"
1,
0%
1/
1$
